\relax 
\@writefile{toc}{\contentsline {section}{\numberline {1}Question 1:}{2}}
\@writefile{toc}{\contentsline {section}{\numberline {2}Question 2:}{5}}
\@writefile{toc}{\contentsline {subsection}{\numberline {2.1}(a)}{5}}
\@writefile{toc}{\contentsline {subsection}{\numberline {2.2}(b)}{5}}
\@writefile{toc}{\contentsline {subsection}{\numberline {2.3}(c)}{7}}
\@writefile{toc}{\contentsline {section}{\numberline {3}Question 3:}{8}}
\@writefile{toc}{\contentsline {subsection}{\numberline {3.1}(a)}{9}}
\@writefile{toc}{\contentsline {subsection}{\numberline {3.2}(b)}{9}}
\@writefile{toc}{\contentsline {subsection}{\numberline {3.3}(c)}{10}}
\@writefile{toc}{\contentsline {section}{\numberline {4}Question 4:}{11}}
\@writefile{toc}{\contentsline {subsection}{\numberline {4.1}a}{11}}
\@writefile{toc}{\contentsline {subsection}{\numberline {4.2}b}{13}}
\@writefile{toc}{\contentsline {subsection}{\numberline {4.3}c}{14}}
\@writefile{toc}{\contentsline {section}{\numberline {5}Question 5:}{16}}
\@writefile{toc}{\contentsline {subsection}{\numberline {5.1}a}{16}}
\@writefile{toc}{\contentsline {subsection}{\numberline {5.2}b}{17}}
